module github.com/livebud/bud

go 1.17

require (
	github.com/matryer/is v1.4.0
	github.com/matthewmueller/diff v0.0.0-20220110044814-1b370be97fd0
)

require (
	github.com/kr/pretty v0.2.1 // indirect
	github.com/kr/text v0.1.0 // indirect
	github.com/lithammer/dedent v1.1.0 // indirect
	github.com/sergi/go-diff v1.0.0 // indirect
)
